We can create executor in two ways

==============================================================================================
ExecutorService lService = Executors.newCachedThreadPool();

lService.submt(task)

ThreadPoolExecutor lExecute = (ThreadPoolExecutor)Executors.newCachedThreadPool();
lEcecute.execute(task);
==============================================================================================
simply it means ThreadPoolExecutor is child class of ExecutorService

==============================================================================================

However for implementing the scheduled services we need

ScheduledThreadPoolExecutor  lExecute= (ScheduledThreadPoolExecutor)Executors.newScheduledThreadPool();

and

ScheduledExecutorService = Executors.newScheduledThreadPool(3)

==============================================================================================
